multiplicador_tb.vcd
$date
	Tue Mar  1 22:56:03 2022
$end
$version
	Icarus Verilog
$end
$timescale
	10ps
$end
$scope module multiplicador_tb $end
$var wire 6 ! resultado [5:0] $end
$var wire 1 " Fin $end
$var reg 1 # clk $end
$var reg 3 $ multiplicador [2:0] $end
$var reg 3 % multiplicando [2:0] $end
$var reg 6 & resultado_esperado [5:0] $end
$var reg 1 ' start $end
$var integer 32 ( contador [31:0] $end
$scope module mult $end
$var wire 3 ) Mcador [2:0] $end
$var wire 3 * Mcando [2:0] $end
$var wire 1 # clk $end
$var wire 1 ' start $end
$var wire 1 + suma $end
$var wire 2 , q [1:0] $end
$var wire 6 - producto [5:0] $end
$var wire 1 " fin $end
$var wire 1 . desplazaAQ $end
$var wire 1 / cargaQ $end
$var wire 1 0 cargaM $end
$var wire 1 1 cargaA $end
$scope module camino $end
$var wire 3 2 Mcador [2:0] $end
$var wire 3 3 Mcando [2:0] $end
$var wire 1 # clk $end
$var wire 1 ' start $end
$var wire 1 + suma $end
$var wire 2 4 q [1:0] $end
$var wire 6 5 producto [5:0] $end
$var wire 1 . desplazaAQ $end
$var wire 1 / cargaQ $end
$var wire 1 0 cargaM $end
$var wire 1 1 cargaA $end
$var wire 1 6 aux $end
$var wire 4 7 SalQ [3:0] $end
$var wire 4 8 SalM_to_Sum [3:0] $end
$var wire 4 9 SalA_to_Sum [3:0] $end
$var wire 4 : EntQ [3:0] $end
$var wire 4 ; EntM [3:0] $end
$var wire 4 < EntA [3:0] $end
$scope module A $end
$var wire 1 = bit_en_desp $end
$var wire 1 # clk $end
$var wire 1 > enable $end
$var wire 1 ' reset $end
$var wire 4 ? salida [3:0] $end
$var wire 4 @ entrada [3:0] $end
$var wire 1 . Desplaza $end
$var wire 1 1 Carga $end
$scope module ff0 $end
$var wire 1 > carga $end
$var wire 1 # clk $end
$var wire 1 A inp_c $end
$var wire 1 B inp_d $end
$var wire 1 ' reset $end
$var wire 1 1 selc_d $end
$var wire 1 C salida $end
$var wire 1 D inp $end
$scope module ff0 $end
$var wire 1 > carga $end
$var wire 1 # clk $end
$var wire 1 ' reset $end
$var wire 1 D d $end
$var reg 1 C q $end
$upscope $end
$scope module mux0 $end
$var wire 1 B a $end
$var wire 1 A b $end
$var wire 1 D out $end
$var wire 1 E s_n $end
$var wire 1 F sa $end
$var wire 1 G sb $end
$var wire 1 1 s $end
$upscope $end
$upscope $end
$scope module ff1 $end
$var wire 1 > carga $end
$var wire 1 # clk $end
$var wire 1 H inp_c $end
$var wire 1 I inp_d $end
$var wire 1 ' reset $end
$var wire 1 1 selc_d $end
$var wire 1 J salida $end
$var wire 1 K inp $end
$scope module ff0 $end
$var wire 1 > carga $end
$var wire 1 # clk $end
$var wire 1 ' reset $end
$var wire 1 K d $end
$var reg 1 J q $end
$upscope $end
$scope module mux0 $end
$var wire 1 I a $end
$var wire 1 H b $end
$var wire 1 K out $end
$var wire 1 L s_n $end
$var wire 1 M sa $end
$var wire 1 N sb $end
$var wire 1 1 s $end
$upscope $end
$upscope $end
$scope module ff2 $end
$var wire 1 > carga $end
$var wire 1 # clk $end
$var wire 1 O inp_c $end
$var wire 1 P inp_d $end
$var wire 1 ' reset $end
$var wire 1 1 selc_d $end
$var wire 1 Q salida $end
$var wire 1 R inp $end
$scope module ff0 $end
$var wire 1 > carga $end
$var wire 1 # clk $end
$var wire 1 ' reset $end
$var wire 1 R d $end
$var reg 1 Q q $end
$upscope $end
$scope module mux0 $end
$var wire 1 P a $end
$var wire 1 O b $end
$var wire 1 R out $end
$var wire 1 S s_n $end
$var wire 1 T sa $end
$var wire 1 U sb $end
$var wire 1 1 s $end
$upscope $end
$upscope $end
$scope module ff3 $end
$var wire 1 > carga $end
$var wire 1 # clk $end
$var wire 1 V inp_c $end
$var wire 1 = inp_d $end
$var wire 1 ' reset $end
$var wire 1 1 selc_d $end
$var wire 1 W salida $end
$var wire 1 X inp $end
$scope module ff0 $end
$var wire 1 > carga $end
$var wire 1 # clk $end
$var wire 1 ' reset $end
$var wire 1 X d $end
$var reg 1 W q $end
$upscope $end
$scope module mux0 $end
$var wire 1 = a $end
$var wire 1 V b $end
$var wire 1 X out $end
$var wire 1 Y s_n $end
$var wire 1 Z sa $end
$var wire 1 [ sb $end
$var wire 1 1 s $end
$upscope $end
$upscope $end
$upscope $end
$scope module M $end
$var wire 1 \ Desplaza $end
$var wire 1 ] bit_en_desp $end
$var wire 1 # clk $end
$var wire 1 ^ enable $end
$var wire 4 _ entrada [3:0] $end
$var wire 1 ` reset $end
$var wire 4 a salida [3:0] $end
$var wire 1 0 Carga $end
$scope module ff0 $end
$var wire 1 ^ carga $end
$var wire 1 # clk $end
$var wire 1 b inp_c $end
$var wire 1 c inp_d $end
$var wire 1 ` reset $end
$var wire 1 0 selc_d $end
$var wire 1 d salida $end
$var wire 1 e inp $end
$scope module ff0 $end
$var wire 1 ^ carga $end
$var wire 1 # clk $end
$var wire 1 ` reset $end
$var wire 1 e d $end
$var reg 1 d q $end
$upscope $end
$scope module mux0 $end
$var wire 1 c a $end
$var wire 1 b b $end
$var wire 1 e out $end
$var wire 1 f s_n $end
$var wire 1 g sa $end
$var wire 1 h sb $end
$var wire 1 0 s $end
$upscope $end
$upscope $end
$scope module ff1 $end
$var wire 1 ^ carga $end
$var wire 1 # clk $end
$var wire 1 i inp_c $end
$var wire 1 j inp_d $end
$var wire 1 ` reset $end
$var wire 1 0 selc_d $end
$var wire 1 k salida $end
$var wire 1 l inp $end
$scope module ff0 $end
$var wire 1 ^ carga $end
$var wire 1 # clk $end
$var wire 1 ` reset $end
$var wire 1 l d $end
$var reg 1 k q $end
$upscope $end
$scope module mux0 $end
$var wire 1 j a $end
$var wire 1 i b $end
$var wire 1 l out $end
$var wire 1 m s_n $end
$var wire 1 n sa $end
$var wire 1 o sb $end
$var wire 1 0 s $end
$upscope $end
$upscope $end
$scope module ff2 $end
$var wire 1 ^ carga $end
$var wire 1 # clk $end
$var wire 1 p inp_c $end
$var wire 1 q inp_d $end
$var wire 1 ` reset $end
$var wire 1 0 selc_d $end
$var wire 1 r salida $end
$var wire 1 s inp $end
$scope module ff0 $end
$var wire 1 ^ carga $end
$var wire 1 # clk $end
$var wire 1 ` reset $end
$var wire 1 s d $end
$var reg 1 r q $end
$upscope $end
$scope module mux0 $end
$var wire 1 q a $end
$var wire 1 p b $end
$var wire 1 s out $end
$var wire 1 t s_n $end
$var wire 1 u sa $end
$var wire 1 v sb $end
$var wire 1 0 s $end
$upscope $end
$upscope $end
$scope module ff3 $end
$var wire 1 ^ carga $end
$var wire 1 # clk $end
$var wire 1 w inp_c $end
$var wire 1 ] inp_d $end
$var wire 1 ` reset $end
$var wire 1 0 selc_d $end
$var wire 1 x salida $end
$var wire 1 y inp $end
$scope module ff0 $end
$var wire 1 ^ carga $end
$var wire 1 # clk $end
$var wire 1 ` reset $end
$var wire 1 y d $end
$var reg 1 x q $end
$upscope $end
$scope module mux0 $end
$var wire 1 ] a $end
$var wire 1 w b $end
$var wire 1 y out $end
$var wire 1 z s_n $end
$var wire 1 { sa $end
$var wire 1 | sb $end
$var wire 1 0 s $end
$upscope $end
$upscope $end
$upscope $end
$scope module Q $end
$var wire 1 } bit_en_desp $end
$var wire 1 # clk $end
$var wire 1 ~ enable $end
$var wire 4 !" entrada [3:0] $end
$var wire 1 "" reset $end
$var wire 4 #" salida [3:0] $end
$var wire 1 . Desplaza $end
$var wire 1 / Carga $end
$scope module ff0 $end
$var wire 1 ~ carga $end
$var wire 1 # clk $end
$var wire 1 $" inp_c $end
$var wire 1 %" inp_d $end
$var wire 1 "" reset $end
$var wire 1 / selc_d $end
$var wire 1 &" salida $end
$var wire 1 '" inp $end
$scope module ff0 $end
$var wire 1 ~ carga $end
$var wire 1 # clk $end
$var wire 1 "" reset $end
$var wire 1 '" d $end
$var reg 1 &" q $end
$upscope $end
$scope module mux0 $end
$var wire 1 %" a $end
$var wire 1 $" b $end
$var wire 1 '" out $end
$var wire 1 (" s_n $end
$var wire 1 )" sa $end
$var wire 1 *" sb $end
$var wire 1 / s $end
$upscope $end
$upscope $end
$scope module ff1 $end
$var wire 1 ~ carga $end
$var wire 1 # clk $end
$var wire 1 +" inp_c $end
$var wire 1 ," inp_d $end
$var wire 1 "" reset $end
$var wire 1 / selc_d $end
$var wire 1 -" salida $end
$var wire 1 ." inp $end
$scope module ff0 $end
$var wire 1 ~ carga $end
$var wire 1 # clk $end
$var wire 1 "" reset $end
$var wire 1 ." d $end
$var reg 1 -" q $end
$upscope $end
$scope module mux0 $end
$var wire 1 ," a $end
$var wire 1 +" b $end
$var wire 1 ." out $end
$var wire 1 /" s_n $end
$var wire 1 0" sa $end
$var wire 1 1" sb $end
$var wire 1 / s $end
$upscope $end
$upscope $end
$scope module ff2 $end
$var wire 1 ~ carga $end
$var wire 1 # clk $end
$var wire 1 2" inp_c $end
$var wire 1 3" inp_d $end
$var wire 1 "" reset $end
$var wire 1 / selc_d $end
$var wire 1 4" salida $end
$var wire 1 5" inp $end
$scope module ff0 $end
$var wire 1 ~ carga $end
$var wire 1 # clk $end
$var wire 1 "" reset $end
$var wire 1 5" d $end
$var reg 1 4" q $end
$upscope $end
$scope module mux0 $end
$var wire 1 3" a $end
$var wire 1 2" b $end
$var wire 1 5" out $end
$var wire 1 6" s_n $end
$var wire 1 7" sa $end
$var wire 1 8" sb $end
$var wire 1 / s $end
$upscope $end
$upscope $end
$scope module ff3 $end
$var wire 1 ~ carga $end
$var wire 1 # clk $end
$var wire 1 9" inp_c $end
$var wire 1 } inp_d $end
$var wire 1 "" reset $end
$var wire 1 / selc_d $end
$var wire 1 :" salida $end
$var wire 1 ;" inp $end
$scope module ff0 $end
$var wire 1 ~ carga $end
$var wire 1 # clk $end
$var wire 1 "" reset $end
$var wire 1 ;" d $end
$var reg 1 :" q $end
$upscope $end
$scope module mux0 $end
$var wire 1 } a $end
$var wire 1 9" b $end
$var wire 1 ;" out $end
$var wire 1 <" s_n $end
$var wire 1 =" sa $end
$var wire 1 >" sb $end
$var wire 1 / s $end
$upscope $end
$upscope $end
$upscope $end
$scope module sumador $end
$var wire 4 ?" A [3:0] $end
$var wire 4 @" B [3:0] $end
$var wire 1 + resta $end
$var wire 1 6 c_out $end
$var wire 4 A" S [3:0] $end
$upscope $end
$upscope $end
$scope module unidad $end
$var wire 1 # clk $end
$var wire 1 . desplazaAQ $end
$var wire 2 B" q [1:0] $end
$var wire 1 ' start $end
$var wire 1 + suma $end
$var wire 1 " fin $end
$var wire 1 / cargaQ $end
$var wire 1 0 cargaM $end
$var wire 1 1 cargaA $end
$var reg 3 C" nextstate [2:0] $end
$var reg 3 D" state [2:0] $end
$upscope $end
$upscope $end
$upscope $end
$scope module registro3 $end
$var wire 1 E" Carga $end
$var wire 1 F" Desplaza $end
$var wire 1 G" bit_en_desp $end
$var wire 1 H" clk $end
$var wire 1 I" enable $end
$var wire 3 J" entrada [2:0] $end
$var wire 1 K" reset $end
$var wire 3 L" salida [2:0] $end
$scope module ff0 $end
$var wire 1 I" carga $end
$var wire 1 H" clk $end
$var wire 1 M" inp_c $end
$var wire 1 N" inp_d $end
$var wire 1 K" reset $end
$var wire 1 E" selc_d $end
$var wire 1 O" salida $end
$var wire 1 P" inp $end
$scope module ff0 $end
$var wire 1 I" carga $end
$var wire 1 H" clk $end
$var wire 1 K" reset $end
$var wire 1 P" d $end
$var reg 1 O" q $end
$upscope $end
$scope module mux0 $end
$var wire 1 N" a $end
$var wire 1 M" b $end
$var wire 1 P" out $end
$var wire 1 E" s $end
$var wire 1 Q" s_n $end
$var wire 1 R" sa $end
$var wire 1 S" sb $end
$upscope $end
$upscope $end
$scope module ff1 $end
$var wire 1 I" carga $end
$var wire 1 H" clk $end
$var wire 1 T" inp_c $end
$var wire 1 U" inp_d $end
$var wire 1 K" reset $end
$var wire 1 E" selc_d $end
$var wire 1 V" salida $end
$var wire 1 W" inp $end
$scope module ff0 $end
$var wire 1 I" carga $end
$var wire 1 H" clk $end
$var wire 1 K" reset $end
$var wire 1 W" d $end
$var reg 1 V" q $end
$upscope $end
$scope module mux0 $end
$var wire 1 U" a $end
$var wire 1 T" b $end
$var wire 1 W" out $end
$var wire 1 E" s $end
$var wire 1 X" s_n $end
$var wire 1 Y" sa $end
$var wire 1 Z" sb $end
$upscope $end
$upscope $end
$scope module ff2 $end
$var wire 1 I" carga $end
$var wire 1 H" clk $end
$var wire 1 [" inp_c $end
$var wire 1 G" inp_d $end
$var wire 1 K" reset $end
$var wire 1 E" selc_d $end
$var wire 1 \" salida $end
$var wire 1 ]" inp $end
$scope module ff0 $end
$var wire 1 I" carga $end
$var wire 1 H" clk $end
$var wire 1 K" reset $end
$var wire 1 ]" d $end
$var reg 1 \" q $end
$upscope $end
$scope module mux0 $end
$var wire 1 G" a $end
$var wire 1 [" b $end
$var wire 1 ]" out $end
$var wire 1 E" s $end
$var wire 1 ^" s_n $end
$var wire 1 _" sa $end
$var wire 1 `" sb $end
$upscope $end
$upscope $end
$upscope $end
$enddefinitions $end
#0
$dumpvars
x`"
x_"
z^"
x]"
x\"
z["
xZ"
xY"
zX"
xW"
xV"
xU"
zT"
xS"
xR"
zQ"
xP"
xO"
xN"
zM"
bx L"
zK"
bz J"
xI"
zH"
zG"
zF"
zE"
b0 D"
b1 C"
bx B"
bx A"
bx @"
b0 ?"
1>"
0="
0<"
1;"
x:"
19"
08"
07"
06"
05"
x4"
x3"
02"
01"
00"
0/"
0."
x-"
x,"
0+"
0*"
0)"
0("
0'"
x&"
x%"
0$"
bx #"
0""
b1000 !"
1~
0}
1|
0{
0z
1y
xx
1w
1v
0u
0t
1s
xr
xq
1p
0o
0n
0m
0l
xk
xj
0i
0h
0g
0f
0e
xd
xc
0b
bx a
0`
b1100 _
1^
0]
0\
0[
0Z
1Y
0X
0W
xV
0U
0T
1S
0R
0Q
0P
xO
0N
0M
1L
0K
0J
0I
xH
0G
0F
1E
0D
0C
0B
xA
bx @
b0 ?
0>
0=
bx <
b1100 ;
b1000 :
b0 9
bx 8
bx 7
x6
b0xxx 5
bx 4
b100 3
b100 2
01
10
1/
0.
b0xxx -
bx ,
x+
b100 *
b100 )
b1 (
1'
bx &
b100 %
b100 $
0#
0"
b0xxx !
$end
#100
0'
#500
1V
06
1O
0H
0A
0+
b1100 <
b1100 @
b1100 A"
0c
1j
1q
0%"
b0 ,
b0 4
b0 B"
0,"
13"
b100 !
b100 -
b100 5
0d
0k
1r
b1100 8
b1100 a
b1100 @"
1x
0&"
0-"
04"
b1000 7
b1000 #"
1:"
1#
#1000
0#
#1100
15"
1l
1>
0;"
17"
0y
1u
1n
1.
0>"
1<"
16"
1/"
1("
1~
0|
1z
0v
1t
1m
1f
0^
0/
00
b11 C"
b1 D"
#1500
05"
1."
07"
10"
03"
1,"
b10 !
b10 -
b10 5
0:"
b100 7
b100 #"
14"
1#
#2000
0#
#2100
b101 C"
b11 D"
#2500
1R
0Y
1U
0S
0L
0E
0V
11
b100 <
b100 @
b100 A"
16
0~
1>
0.
1'"
1+
0."
1)"
b100 C"
00"
1%"
b10 ,
b10 4
b10 B"
0,"
b1 !
b1 -
b1 5
1-"
b10 7
b10 #"
04"
1#
#3000
0#
#3100
b110 C"
b101 D"
#3500
1X
0R
1[
0U
1V
0O
b1000 <
b1000 @
b1000 A"
1I
b100001 !
b100001 -
b100001 5
b100 9
b100 ?
b100 ?"
1Q
1#
#4000
0#
#4100
1K
0X
1M
0[
1Y
1S
1L
1E
01
1~
1.
b111 C"
b110 D"
#4500
06
0K
1V
1O
1H
1D
0'"
0+
0M
b1110 <
b1110 @
b1110 A"
1F
0)"
0I
1B
0%"
b1 ,
b1 4
b1 B"
b10000 !
b10000 -
b10000 5
0Q
b10 9
b10 ?
b10 ?"
1J
1&"
b1 7
b1 #"
0-"
1#
#5000
0#
#5100
0~
0>
b10000 &
0.
1"
b111 D"
#5500
1#
#6000
0#
#6500
1#
#7000
0#
#7100
0l
1;"
1."
1y
0u
0n
0H
0D
1>"
0<"
06"
11"
0/"
0("
1~
1|
0z
1v
0t
0m
0f
1^
b1100 <
b1100 @
b1100 A"
0F
1/
10
0"
0B
b0 !
b0 -
b0 5
b1 C"
b0 9
b0 ?
b0 ?"
0J
b0 D"
1+"
1'
b1010 :
b1010 !"
b101 $
b101 )
b101 2
b10 (
#7200
0'
#7500
0V
b100 <
b100 @
b100 A"
16
1+
13"
1%"
b101 !
b101 -
b101 5
b10 ,
b10 4
b10 B"
1:"
1-"
b1010 7
b1010 #"
0&"
1#
#8000
0#
#8100
1R
0Y
1U
0S
0L
0E
1>
11
15"
1'"
1l
0;"
17"
0."
1)"
0y
1u
1n
0>"
1<"
16"
01"
1/"
1("
0~
0|
1z
0v
1t
1m
1f
0^
0/
00
b10 C"
b1 D"
#8500
1X
0R
1[
0U
1V
0O
b1000 <
b1000 @
b1000 A"
1I
b100101 !
b100101 -
b100101 5
b100 9
b100 ?
b100 ?"
1Q
1#
#9000
0#
#9100
1K
0X
1M
0[
1Y
1S
1L
1E
01
1~
1.
b11 C"
b10 D"
#9500
06
0K
1V
1O
1H
1D
05"
1."
0'"
0+
0M
b1110 <
b1110 @
b1110 A"
1F
07"
10"
0)"
0I
1B
03"
1,"
0%"
b10010 !
b10010 -
b10010 5
b1 ,
b1 4
b1 B"
0Q
b10 9
b10 ?
b10 ?"
1J
0:"
14"
0-"
b101 7
b101 #"
1&"
1#
#10000
0#
#10100
0D
1X
1R
1K
0F
1[
0Y
1U
0S
1N
0L
0E
11
0~
1>
0.
b100 C"
b11 D"
#10500
0R
0U
0O
b1010 <
b1010 @
b1010 A"
16
1I
b110010 !
b110010 -
b110010 5
1P
1=
1Q
b1110 9
b1110 ?
b1110 ?"
1W
1#
#11000
0#
#11100
1R
1D
1Z
1T
1M
1F
0[
1Y
1S
0N
1L
1E
01
1~
1.
b101 C"
b100 D"
#11500
0V
06
1A
1;"
0."
1'"
1+
b11 <
b11 @
b11 A"
1="
00"
1)"
1}
0,"
1%"
b111001 !
b111001 -
b111001 5
b10 ,
b10 4
b10 B"
b1111 9
b1111 ?
b1111 ?"
1C
04"
1-"
b10 7
b10 #"
0&"
1#
#12000
0#
#12100
0X
0R
0Z
0T
0M
0F
0Y
0S
1N
0L
1G
0E
11
0~
1>
0.
b110 C"
b101 D"
#12500
1R
1U
1O
b111 <
b111 @
b111 A"
16
0I
b11001 !
b11001 -
b11001 5
0P
0=
0Q
b11 9
b11 ?
b11 ?"
0W
1#
#13000
0#
#13100
0R
0K
1F
1Y
0U
1S
0N
1L
0G
1E
01
1~
1.
b111 C"
b110 D"
#13500
1V
06
0H
0D
15"
0'"
0+
b1101 <
b1101 @
b1101 A"
0F
17"
0)"
0B
13"
0%"
b1100 !
b1100 -
b1100 5
b1 ,
b1 4
b1 B"
b1 9
b1 ?
b1 ?"
0J
1:"
0-"
b1001 7
b1001 #"
1&"
1#
#14000
0#
#14100
0~
0>
b1100 &
0.
1"
b111 D"
#14500
1#
#15000
0#
#15500
1#
#16000
0#
#16100
0l
07"
1y
0u
0n
0A
1>"
0<"
18"
06"
0/"
0("
1~
1|
0z
1v
0t
0m
0f
1^
b1100 <
b1100 @
b1100 A"
0="
1/
10
0"
b100 !
b100 -
b100 5
0}
b1 C"
b0 9
b0 ?
b0 ?"
0C
b0 D"
0+"
12"
1'
b1100 :
b1100 !"
b110 $
b110 )
b110 2
b11 (
#16200
0'
#16500
b0 ,
b0 4
b0 B"
1,"
b110 !
b110 -
b110 5
0&"
b1100 7
b1100 #"
14"
1#
#17000
0#
#17100
1."
1l
1>
0;"
17"
10"
0y
1u
1n
1.
0>"
1<"
08"
16"
1/"
1("
1~
0|
1z
0v
1t
1m
1f
0^
0/
00
b11 C"
b1 D"
#17500
1R
0Y
1U
0S
0L
0E
0V
11
b100 <
b100 @
b100 A"
16
0~
1>
0.
05"
1'"
1+
07"
1)"
b10 C"
03"
1%"
b10 ,
b10 4
b10 B"
b11 !
b11 -
b11 5
0:"
b110 7
b110 #"
1-"
1#
#18000
0#
#18100
b100 C"
b11 D"
#18500
1X
0R
1[
0U
1V
0O
b1000 <
b1000 @
b1000 A"
1I
b100011 !
b100011 -
b100011 5
b100 9
b100 ?
b100 ?"
1Q
1#
#19000
0#
#19100
1K
0X
1M
0[
1Y
1S
1L
1E
01
1~
1.
b101 C"
b100 D"
#19500
06
1D
1V
1O
1H
0K
0."
0+
1F
b1110 <
b1110 @
b1110 A"
0M
00"
1B
0I
0,"
b10001 !
b10001 -
b10001 5
b11 ,
b11 4
b11 B"
1J
b10 9
b10 ?
b10 ?"
0Q
04"
b11 7
b11 #"
1&"
1#
#20000
0#
#20100
b111 C"
b101 D"
#20500
1X
1R
1[
0Y
1U
0S
0L
1G
0E
11
0~
1>
0.
1D
0H
1A
1;"
0'"
0F
b1101 <
b1101 @
b1101 A"
1="
0)"
b110 C"
0B
1}
0%"
b1 ,
b1 4
b1 B"
b1000 !
b1000 -
b1000 5
0J
b1 9
b1 ?
b1 ?"
1C
b1 7
b1 #"
0-"
1#
#21000
0#
#21100
0X
0R
0D
0[
1Y
0U
1S
1L
0G
1E
0>
01
b1000 &
1"
b111 C"
b111 D"
#21500
1#
#22000
0#
#22500
1#
#23000
0#
#23100
0l
15"
1."
1y
0u
0n
0A
1>"
0<"
18"
06"
11"
0/"
0("
1~
1|
0z
1v
0t
0m
0f
1^
b1100 <
b1100 @
b1100 A"
0="
1/
10
0"
b0 !
b0 -
b0 5
0}
b1 C"
b0 9
b0 ?
b0 ?"
0C
b0 D"
1+"
1'
b1110 :
b1110 !"
b111 $
b111 )
b111 2
b100 (
#23200
0'
#23500
0V
b100 <
b100 @
b100 A"
16
1+
13"
1,"
1%"
b111 !
b111 -
b111 5
b10 ,
b10 4
b10 B"
1:"
14"
1-"
b1110 7
b1110 #"
0&"
1#
#24000
0#
#24100
1R
0Y
1U
0S
0L
0E
1>
11
1'"
1l
0;"
17"
10"
1)"
0y
1u
1n
0>"
1<"
08"
16"
01"
1/"
1("
0~
0|
1z
0v
1t
1m
1f
0^
0/
00
b10 C"
b1 D"
#24500
1X
0R
1[
0U
1V
0O
b1000 <
b1000 @
b1000 A"
1I
b100111 !
b100111 -
b100111 5
b100 9
b100 ?
b100 ?"
1Q
1#
#25000
0#
#25100
1K
0X
1M
0[
1Y
1S
1L
1E
01
1~
1.
b11 C"
b10 D"
#25500
06
0K
1V
1O
1H
1D
05"
0+
0M
b1110 <
b1110 @
b1110 A"
1F
07"
0I
1B
03"
b10011 !
b10011 -
b10011 5
b11 ,
b11 4
b11 B"
0Q
b10 9
b10 ?
b10 ?"
1J
0:"
b111 7
b111 #"
1&"
1#
#26000
0#
#26100
1~
1>
1.
b101 C"
b11 D"
#26500
1;"
0H
1A
0D
0."
1="
b1101 <
b1101 @
b1101 A"
0F
00"
1}
0B
0,"
b1001 !
b1001 -
b1001 5
1C
b1 9
b1 ?
b1 ?"
0J
b11 7
b11 #"
04"
1#
#27000
0#
#27100
b111 C"
b101 D"
#27500
1X
1R
1[
0Y
1U
0S
0L
0E
11
0~
1>
0.
0A
0;"
15"
0'"
b1100 <
b1100 @
b1100 A"
0="
17"
0)"
b110 C"
0}
13"
0%"
b1 ,
b1 4
b1 B"
b100 !
b100 -
b100 5
b0 9
b0 ?
b0 ?"
0C
1:"
b1001 7
b1001 #"
0-"
1#
#28000
0#
#28100
0X
0R
0[
1Y
0U
1S
1L
1E
0>
01
b100 &
1"
b111 C"
b111 D"
#28500
1#
#29000
0#
#29500
1#
#30000
0#
#30100
05"
0l
07"
1y
0u
0n
0<"
06"
0/"
0("
1~
1|
0z
1v
0t
0m
0f
1^
1/
10
0"
b1 C"
b0 D"
0+"
02"
09"
1'
b0 :
b0 !"
b0 $
b0 )
b0 2
b101 (
#30200
0'
#30500
b0 ,
b0 4
b0 B"
03"
b0 !
b0 -
b0 5
0&"
b0 7
b0 #"
0:"
1#
#31000
0#
#31100
1l
1>
0y
1u
1n
1.
1<"
16"
1/"
1("
1~
0|
1z
0v
1t
1m
1f
0^
0/
00
b11 C"
b1 D"
#31500
1#
#32000
0#
#32100
b101 C"
b11 D"
#32500
1#
#33000
0#
#33100
b111 C"
b101 D"
#33500
1#
#34000
0#
#34100
0~
0>
0.
b0 &
1"
b111 D"
#34500
1#
#35000
0#
#35500
1#
#36000
0#
#36100
0l
1."
1y
0u
0n
0<"
06"
11"
0/"
0("
1~
1|
0z
1v
0t
0m
0f
1^
1/
10
0"
b1 C"
b0 D"
1+"
1'
b10 :
b10 !"
b1 $
b1 )
b1 2
b110 (
#36200
0'
#36500
0V
b100 <
b100 @
b100 A"
16
1+
1%"
b10 ,
b10 4
b10 B"
b1 !
b1 -
b1 5
b10 7
b10 #"
1-"
1#
#37000
0#
#37100
1R
0Y
1U
0S
0L
0E
1>
11
1'"
1l
0."
1)"
0y
1u
1n
1<"
16"
01"
1/"
1("
0~
0|
1z
0v
1t
1m
1f
0^
0/
00
b10 C"
b1 D"
#37500
1X
0R
1[
0U
1V
0O
b1000 <
b1000 @
b1000 A"
1I
b100001 !
b100001 -
b100001 5
b100 9
b100 ?
b100 ?"
1Q
1#
#38000
0#
#38100
1K
0X
1M
0[
1Y
1S
1L
1E
01
1~
1.
b11 C"
b10 D"
#38500
06
1D
1V
1O
1H
0K
0'"
0+
1F
b1110 <
b1110 @
b1110 A"
0M
0)"
1B
0I
0%"
b1 ,
b1 4
b1 B"
b10000 !
b10000 -
b10000 5
1J
b10 9
b10 ?
b10 ?"
0Q
1&"
b1 7
b1 #"
0-"
1#
#39000
0#
#39100
0D
1X
1R
1K
0F
1[
0Y
1U
0S
1N
0L
0E
11
0~
1>
0.
b100 C"
b11 D"
#39500
0R
0U
0O
b1010 <
b1010 @
b1010 A"
16
1P
1=
1I
b110000 !
b110000 -
b110000 5
1W
b1110 9
b1110 ?
b1110 ?"
1Q
1#
#40000
0#
#40100
1R
1D
1Z
1T
1M
1F
0[
1Y
1S
0N
1L
1E
01
1~
1.
b101 C"
b100 D"
#40500
1A
1;"
b1011 <
b1011 @
b1011 A"
1="
b111000 !
b111000 -
b111000 5
1}
b0 ,
b0 4
b0 B"
b1111 9
b1111 ?
b1111 ?"
1C
b0 7
b0 #"
0&"
1#
#41000
0#
#41100
b111 C"
b101 D"
#41500
15"
17"
13"
b111100 !
b111100 -
b111100 5
b1000 7
b1000 #"
1:"
1#
#42000
0#
#42100
0~
0>
0.
b111100 &
1"
b111 D"
#42500
1#
#43000
0#
#43500
1#
#44000
0#
#44100
0l
07"
1y
0u
0n
0;"
0D
0K
1O
0H
0A
0R
0X
0<"
18"
06"
0/"
0("
1~
1|
0z
1v
0t
0m
0f
1^
0="
0F
0M
b1100 <
b1100 @
b1100 A"
06
0T
0Z
1/
10
0"
0}
0B
0I
b100 !
b100 -
b100 5
0P
0=
b1 C"
0C
0J
0Q
b0 9
b0 ?
b0 ?"
0W
b0 D"
0+"
12"
1'
b100 :
b100 !"
b10 $
b10 )
b10 2
b111 (
#44200
0'
#44500
1,"
03"
b10 !
b10 -
b10 5
14"
b100 7
b100 #"
0:"
1#
#45000
0#
#45100
1."
1l
1>
05"
10"
0y
1u
1n
1.
1<"
08"
16"
1/"
1("
1~
0|
1z
0v
1t
1m
1f
0^
0/
00
b11 C"
b1 D"
#45500
1R
0Y
1U
0S
0L
0E
0V
11
b100 <
b100 @
b100 A"
16
0~
1>
0.
0."
1'"
1+
00"
1)"
b10 C"
0,"
1%"
b10 ,
b10 4
b10 B"
b1 !
b1 -
b1 5
04"
b10 7
b10 #"
1-"
1#
#46000
0#
#46100
b100 C"
b11 D"
#46500
1X
0R
1[
0U
1V
0O
b1000 <
b1000 @
b1000 A"
1I
b100001 !
b100001 -
b100001 5
b100 9
b100 ?
b100 ?"
1Q
1#
#47000
0#
#47100
1K
0X
1M
0[
1Y
1S
1L
1E
01
1~
1.
b101 C"
b100 D"
#47500
06
1D
1V
1O
1H
0K
0'"
0+
1F
b1110 <
b1110 @
b1110 A"
0M
0)"
1B
0I
0%"
b10000 !
b10000 -
b10000 5
b1 ,
b1 4
b1 B"
1J
b10 9
b10 ?
b10 ?"
0Q
0-"
b1 7
b1 #"
1&"
1#
#48000
0#
#48100
0D
1X
1R
1K
0F
1[
0Y
1U
0S
1N
0L
0E
11
0~
1>
0.
b110 C"
b101 D"
#48500
0R
0U
0O
b1010 <
b1010 @
b1010 A"
16
1P
1=
1I
b110000 !
b110000 -
b110000 5
1W
b1110 9
b1110 ?
b1110 ?"
1Q
1#
#49000
0#
#49100
1R
1D
1Z
1T
1M
1F
0[
1Y
1S
0N
1L
1E
01
1~
1.
b111 C"
b110 D"
#49500
1A
1;"
b1011 <
b1011 @
b1011 A"
1="
b111000 !
b111000 -
b111000 5
1}
b0 ,
b0 4
b0 B"
b1111 9
b1111 ?
b1111 ?"
1C
b0 7
b0 #"
0&"
1#
#50000
0#
#50100
0~
0>
b111000 &
0.
1"
b111 D"
#50500
1#
#51000
0#
#51500
1#
#52000
0#
#52100
0l
15"
1."
1y
0u
0n
0<"
18"
06"
11"
0/"
0("
1~
1|
0z
1v
0t
0m
0f
1^
0R
0X
0K
0D
1O
0H
0A
0;"
1/
10
0"
0T
0Z
0M
0F
b1100 <
b1100 @
b1100 A"
06
0="
b1 C"
0P
0=
0I
0B
b0 !
b0 -
b0 5
0}
b0 D"
0W
0Q
0J
b0 9
b0 ?
b0 ?"
0C
1+"
1'
b110 :
b110 !"
b11 $
b11 )
b11 2
b1000 (
#52200
0'
#52500
0V
b100 <
b100 @
b100 A"
16
1+
1%"
b10 ,
b10 4
b10 B"
1,"
b11 !
b11 -
b11 5
1-"
b110 7
b110 #"
14"
1#
